{
  "images" : [
    {
      "idiom" : "universal",
      "filename" : "^5DDABF25CC925B7E93FE8A2F3D9919C0238AB7DB4E40730E75^pimgpsh_thumbnail_win_distr.jpg",
      "scale" : "1x"
    },
    {
      "idiom" : "universal",
      "scale" : "2x"
    },
    {
      "idiom" : "universal",
      "scale" : "3x"
    }
  ],
  "info" : {
    "version" : 1,
    "author" : "xcode"
  }
}