{
  "images" : [
    {
      "idiom" : "universal",
      "filename" : "^B9DDC47A841EA68951F32ADE593E05B29D3B27D306CA4D5B2A^pimgpsh_thumbnail_win_distr.jpg",
      "scale" : "1x"
    },
    {
      "idiom" : "universal",
      "scale" : "2x"
    },
    {
      "idiom" : "universal",
      "scale" : "3x"
    }
  ],
  "info" : {
    "version" : 1,
    "author" : "xcode"
  }
}